<svg id="На_свадьбу" data-name="На свадьбу" xmlns="http://www.w3.org/2000/svg" width="51.969" height="56.19" viewBox="0 0 51.969 56.19">
  <defs>
    <style>
      .cls-1 {
        fill: #1a1a1a;
      }

      .cls-1, .cls-2 {
        fill-rule: evenodd;
      }

      .cls-2 {
        fill: #faa61a;
      }
    </style>
  </defs>
  <path class="cls-1" d="M194.482,3366.95a14.361,14.361,0,1,1,14.494-14.36A14.443,14.443,0,0,1,194.482,3366.95Zm0-25.73a11.375,11.375,0,1,0,11.477,11.37A11.436,11.436,0,0,0,194.482,3341.22Z" transform="translate(-157 -3310.78)"/>
  <path class="cls-2" d="M205.121,3321.74a0.693,0.693,0,0,1-.106.11l-7.43,7.46a1.485,1.485,0,0,1-2.13,0l-7.191-7.21a6.421,6.421,0,0,1,8.227-9.86A6.426,6.426,0,0,1,205.121,3321.74Zm-4.549-7.94a3.4,3.4,0,0,0-2.829,1.52,1.559,1.559,0,0,1-2.5,0,3.4,3.4,0,1,0-4.991,4.5c0.035,0.03.069,0.06,0.1,0.09l6.171,6.2,6.241-6.27c0.044-.05.092-0.11,0.144-0.16a3.37,3.37,0,0,0,1.069-2.47A3.41,3.41,0,0,0,200.572,3313.8Zm-9.5,24.67a14.665,14.665,0,0,0-2.834,1.16,15.405,15.405,0,1,0,1.46,2.64,11.488,11.488,0,0,1,2.83-1.06A18.71,18.71,0,1,1,191.073,3338.47Z" transform="translate(-157 -3310.78)"/>
</svg>
