<svg id="_3" data-name="3" xmlns="http://www.w3.org/2000/svg" width="126" height="126" viewBox="0 0 126 126">
  <defs>
    <style>
      .cls-1, .cls-2, .cls-3 {
        fill-rule: evenodd;
      }

      .cls-2 {
        fill: #b1b1b1;
      }

      .cls-3 {
        fill: #faa61a;
      }
    </style>
  </defs>
  <path class="cls-1" d="M926.445,1489.41a16.489,16.489,0,0,1-16.553-16.39,16.22,16.22,0,0,1,4.721-11.4c0.827,1.26,1.648,2.42,2.362,3.39a12.2,12.2,0,0,0-3.009,8.01,12.48,12.48,0,1,0,13.173-12.32,42.919,42.919,0,0,0,2.159-3.8A16.365,16.365,0,0,1,926.445,1489.41ZM865.483,1567c-26.734,0-48.483-21.53-48.483-48a47.987,47.987,0,0,1,26.642-42.83c0.682,1.19,1.386,2.36,2.08,3.48A43.963,43.963,0,0,0,821.075,1519c0,24.24,19.921,43.97,44.408,43.97s44.409-19.73,44.409-43.97-19.923-43.96-44.409-43.96c-1.063,0-2.114.05-3.158,0.12,0.764-1.38,1.485-2.77,2.107-4.13,0.35-.01.7-0.03,1.051-0.03,26.733,0,48.483,21.54,48.483,48S892.216,1567,865.483,1567Z" transform="translate(-817 -1441)"/>
  <path class="cls-2" d="M909.232,1515.03c-0.061-.26-0.361-0.79-1.694-1.47-0.206-.11-0.416-0.21-0.627-0.31a9.767,9.767,0,0,1-3.418-2.34c-1.939-2.28-1.685-5.26-1.481-7.65l0.055-.66a25.531,25.531,0,0,0-1.373-10.34,43.864,43.864,0,0,1,5.5,9.21c-0.013.48-.024,0.96-0.062,1.44l-0.057.69c-0.154,1.82-.315,3.7.537,4.7a6.527,6.527,0,0,0,2.084,1.32l0.184,0.09a43.169,43.169,0,0,1,.893,6.28A2.007,2.007,0,0,1,909.232,1515.03Zm-16.7,15.8a14.839,14.839,0,0,0-1.641,1.49,12.25,12.25,0,0,0-2.034,4.54,22.236,22.236,0,0,1-1.629,4.26c-2.009,3.69-5.513,5.74-8.9,7.72a33.98,33.98,0,0,0-5.307,3.56c-0.6.54-1.191,1.13-1.781,1.73-2.161,2.17-4.608,4.64-8.173,4.78-0.076,0-.16.01-0.252,0.01a3.986,3.986,0,0,1-1.385-.23,3.892,3.892,0,0,1-2.257-4.65,7.839,7.839,0,0,1,1.451-2.77l0.2-.28a15.973,15.973,0,0,0,2.867-10.32,6.06,6.06,0,0,0-.585-2.43,9.1,9.1,0,0,0-2.289-2.33c-0.515-.41-1.03-0.83-1.5-1.28-2.438-2.3-3.864-5.31-5.123-7.97a7.105,7.105,0,0,1-.855-4.91,7.86,7.86,0,0,1,.366-0.97,3.385,3.385,0,0,0,.174-0.44,2.444,2.444,0,0,0-.348-1.79,3.791,3.791,0,0,1,.268-4.46,22.252,22.252,0,0,0-8.989-5.17l-0.347-.1a8.734,8.734,0,0,1-3.155-1.39,8.873,8.873,0,0,1-2.036-2.44l-3.992-6.33c-1.351-2.14-3.392-5.38-2.753-8.94,0.012-.07.033-0.14,0.047-0.21a45.1,45.1,0,0,1,8.477-7.2,14.52,14.52,0,0,1-2.512,4.49,9.684,9.684,0,0,0-1.994,3.62c-0.336,1.88.846,3.96,2.194,6.1l3.994,6.32a5.506,5.506,0,0,0,1.07,1.39,5.674,5.674,0,0,0,1.781.7l0.374,0.11a26.436,26.436,0,0,1,10.839,6.29,3.56,3.56,0,0,0,1.184-1.48c0.006-.11-0.042-0.71-1.539-2.23a11.879,11.879,0,0,0-7.993-3.59l-0.234-.01a6.442,6.442,0,0,1-2.249-.34,4.266,4.266,0,0,1-2.645-3.28,5.4,5.4,0,0,1,1.57-4.93c1.666-1.54,4.089-2.11,7.188-1.72,0.535,0.07,1.072.16,1.607,0.25,0.6,0.1,1.176.2,1.735,0.26,0.273-1.3,1.157-2.88,3.318-4.61,2.792-2.22,5.679-4.52,9.212-5.92,0.421-.16.85-0.32,1.279-0.47a13.134,13.134,0,0,0,2.336-.98,5.689,5.689,0,0,0,2.737-4.78,2,2,0,0,1,.622-1.45c1.137,0.24,2.258.53,3.361,0.86a1.981,1.981,0,0,1,.1.58,9.718,9.718,0,0,1-4.74,8.27,16.33,16.33,0,0,1-3.043,1.31c-0.383.14-.766,0.27-1.142,0.42-2.962,1.17-5.606,3.28-8.162,5.31-1.471,1.18-2.032,2.22-1.871,2.51a2.021,2.021,0,0,1-1.5,2.96,15.633,15.633,0,0,1-4.914-.28c-0.483-.08-0.967-0.16-1.45-0.22-1.275-.17-2.978-0.18-3.89.66a1.4,1.4,0,0,0-.362,1.01,0.745,0.745,0,0,0,.127.46,3.844,3.844,0,0,0,.871.08l0.27,0.01a16,16,0,0,1,10.79,4.8,11.854,11.854,0,0,1,2.045,2.63,10.518,10.518,0,0,1,4.233-1.34,34.219,34.219,0,0,0,1.629,3.97,7,7,0,0,0-4.107,1.05,11.824,11.824,0,0,0-1.2.91,1.9,1.9,0,0,1-.7.38,12.743,12.743,0,0,1-2.593,2.7,1.955,1.955,0,0,1-.526.71,2.027,2.027,0,0,1-.8.42,3.177,3.177,0,0,0-.271.28c0.043,0.09.1,0.2,0.14,0.3a6.356,6.356,0,0,1,.684,4.29,5.883,5.883,0,0,1-.445,1.31,3.2,3.2,0,0,0-.17.43,4.207,4.207,0,0,0,.614,2.11c1.158,2.45,2.357,4.99,4.238,6.76,0.4,0.38.841,0.73,1.277,1.08a12.141,12.141,0,0,1,3.3,3.54,9.994,9.994,0,0,1,1.064,4.04,19.763,19.763,0,0,1-3.6,12.96l-0.227.31a5.95,5.95,0,0,0-.752,1.22c1.835-.22,3.447-1.85,5.146-3.56,0.653-.66,1.306-1.31,1.977-1.91a37.1,37.1,0,0,1,5.945-4.02c3.043-1.78,5.915-3.46,7.384-6.16a18.708,18.708,0,0,0,1.313-3.51,15.348,15.348,0,0,1,2.86-6.02,17.554,17.554,0,0,1,2.1-1.94c1.332-1.11,2.145-1.84,2.213-2.67,0.089-1.08-1.293-2.21-2.7-2.86-0.456-.2-0.931-0.39-1.4-0.58a18.686,18.686,0,0,1-3.455-1.7c0.695-1.07,1.424-2.23,2.149-3.44a13.849,13.849,0,0,0,2.839,1.39c0.532,0.21,1.062.42,1.576,0.66,3.4,1.54,5.29,4.11,5.066,6.86C895.983,1527.96,894.072,1529.55,892.535,1530.83Z" transform="translate(-817 -1441)"/>
  <path class="cls-3" d="M922.334,1467.41a2.254,2.254,0,0,1-3.511,0c-1.445-1.79-8.652-11.01-8.652-16.04a10.408,10.408,0,0,1,20.815,0C930.986,1456.4,923.779,1465.62,922.334,1467.41Zm-1.756-21.93a5.9,5.9,0,0,0-5.907,5.89c0,2.11,3.052,7.06,5.907,10.95,2.855-3.9,5.907-8.84,5.907-10.95A5.9,5.9,0,0,0,920.578,1445.48Zm-3.736,6.5a3.736,3.736,0,1,1,3.736,3.72A3.735,3.735,0,0,1,916.842,1451.98Zm3.736,0.76a0.765,0.765,0,1,0-.764-0.76A0.769,0.769,0,0,0,920.578,1452.74Zm-41.838,74.13a2.015,2.015,0,0,1-1.616-.82c-1.253-1.71-12.242-16.89-12.242-23.86a13.859,13.859,0,0,1,27.718,0c0,6.97-10.99,22.15-12.243,23.86A2.017,2.017,0,0,1,878.74,1526.87Zm0-34.48a9.842,9.842,0,0,0-9.857,9.8c0,3.79,5.515,12.99,9.857,19.25,4.344-6.26,9.859-15.47,9.859-19.25A9.843,9.843,0,0,0,878.74,1492.39Zm-6.013,10.89a6.014,6.014,0,1,1,6.013,5.98A6,6,0,0,1,872.727,1503.28Zm8.027,0a2.013,2.013,0,1,0-2.014,2A2.011,2.011,0,0,0,880.754,1503.28ZM852.7,1488.41a2.014,2.014,0,0,1-1.616-.82c-1.253-1.71-12.243-16.9-12.243-23.86a13.86,13.86,0,0,1,27.719,0c0,6.96-10.991,22.15-12.244,23.86A2.015,2.015,0,0,1,852.7,1488.41Zm0-34.48a9.835,9.835,0,0,0-9.857,9.8c0,3.78,5.514,12.99,9.857,19.24,4.344-6.26,9.858-15.46,9.858-19.24A9.835,9.835,0,0,0,852.7,1453.93Zm-6.014,10.89a6.015,6.015,0,1,1,6.014,5.98A6,6,0,0,1,846.685,1464.82Zm8.027,0a2.013,2.013,0,1,0-2.013,2A2.011,2.011,0,0,0,854.712,1464.82Z" transform="translate(-817 -1441)"/>
</svg>
