<svg id="_1" data-name="1" xmlns="http://www.w3.org/2000/svg" width="86.719" height="124" viewBox="0 0 86.719 124">
  <defs>
    <style>
      .cls-1 {
        fill: #faa61a;
      }

      .cls-1, .cls-2, .cls-3 {
        fill-rule: evenodd;
      }

      .cls-3 {
        fill: #b1b1b1;
      }
    </style>
  </defs>
  <path class="cls-1" d="M451.018,1470.21a16.546,16.546,0,0,0-8.55-11.99h0a11.476,11.476,0,0,0-2.539-8.97,18.194,18.194,0,0,1,9.618-2.76,18.729,18.729,0,0,1,3.184.27,2.244,2.244,0,0,0,.781-4.42,22.794,22.794,0,0,0-17.233,3.95,11.549,11.549,0,0,0-5.365-1.32,11.682,11.682,0,0,0-10.361,6.33,19.223,19.223,0,0,0-6.733-1.09,20.362,20.362,0,0,0-20.126,17.34,13.5,13.5,0,1,0,12.083,23.28,12.442,12.442,0,0,0,15.03.64,12.464,12.464,0,0,0,20.331,1.62,12.351,12.351,0,0,0,5.687,1.37A12.492,12.492,0,0,0,451.018,1470.21Zm-9.086-9.73h0Zm-0.426,1.05c0,0.01,0,.01,0,0.01S441.505,1461.54,441.506,1461.53Zm-10.592-12.06a7.285,7.285,0,0,1,1.63.19,20.938,20.938,0,0,0-1.4,1.73,2.243,2.243,0,0,0,3.628,2.64,17.923,17.923,0,0,1,1.663-1.97A7.182,7.182,0,1,1,430.914,1449.47Zm15.911,40.49a7.859,7.859,0,0,1-4.926-1.7,2.272,2.272,0,0,0-1.835-.43,2.231,2.231,0,0,0-1.516,1.12,7.98,7.98,0,0,1-14.737-1.84,2.244,2.244,0,0,0-3.909-.86,7.967,7.967,0,0,1-12.41-.04,2.271,2.271,0,0,0-1.76-.84,2.228,2.228,0,0,0-1.751.86,9,9,0,1,1-8.007-14.53,2.241,2.241,0,0,0,2.011-2.09,15.863,15.863,0,0,1,15.835-14.91,14.5,14.5,0,0,1,5.477.93c-0.03.34-.053,0.68-0.053,1.03a11.658,11.658,0,0,0,21.737,5.88,11.664,11.664,0,0,1,1.978,1.51,12.024,12.024,0,0,1,3.756,8.04,2.232,2.232,0,0,0,1.775,2.06A7.994,7.994,0,0,1,446.825,1489.96Zm-27.1-36.58s0,0.01,0,.01S419.72,1453.38,419.721,1453.38Zm-0.266,1.1a0.08,0.08,0,0,1,0,.02A0.08,0.08,0,0,0,419.455,1454.48Z" transform="translate(-376.281 -1442)"/>
  <path class="cls-2" d="M446.825,1494.46a12.356,12.356,0,0,1-2.2-.22l-3.9,15.92c-0.242.98-1,3.28-2.812,3.28H404.8c-1.811,0-2.569-2.3-2.812-3.28l-3.935-16.05a11.059,11.059,0,0,1-1.153.06,13.607,13.607,0,0,1-3.575-.5l4.307,17.56c1.029,4.19,3.708,6.7,7.168,6.7h33.107c3.459,0,6.137-2.5,7.167-6.7l4.174-17.01A12.906,12.906,0,0,1,446.825,1494.46Z" transform="translate(-376.281 -1442)"/>
  <path class="cls-3" d="M460.083,1537.16a7.124,7.124,0,0,0-5.9-.04,4.661,4.661,0,0,0-1.529-2.19c-1.923-1.54-4.814-1.42-7.709.26a4.153,4.153,0,0,0-1.156-1.03c-1.876-1.12-4.452-.77-7.878,1.05l-9.714,5.18a2.208,2.208,0,0,0-.716.6c-2.541-.39-4.642-1.47-8.98-4.69l-6.417-4.76c-2.109-1.56-6.442-1.7-9.8-.33l-22.546,8.39a2.245,2.245,0,0,0,1.563,4.21l22.609-8.42c2.455-.99,4.97-0.62,5.5-0.24l6.417,4.76c7.307,5.42,9.667,5.72,16.031,5.84,1.491,0.02,3.181.05,5.289,0.18a0.448,0.448,0,0,1,.24.33,1.244,1.244,0,0,1-.912.7l-0.127.06c-8.544,3.91-13.723,2.59-22.809-2.06a2.242,2.242,0,1,0-2.044,3.99c5.377,2.76,10.108,4.87,15.559,4.87a26.525,26.525,0,0,0,11.1-2.69c3.145-1.24,3.957-3.69,3.665-5.57a4.824,4.824,0,0,0-4.405-4.11c-0.531-.03-1.033-0.06-1.515-0.08l4.116-2.19a7.372,7.372,0,0,1,3.4-1.16,2.544,2.544,0,0,1,.077.69,2.248,2.248,0,0,0,3.51,1.84l1.641-1.13c1.824-1.25,2.992-1.16,3.209-.98,0.1,0.08.257,0.65-.175,1.75a2.243,2.243,0,0,0,3.4,2.64c2.5-1.82,4.232-2.04,4.954-1.67a0.833,0.833,0,0,1,.467.75,0.561,0.561,0,0,1-.324.54,1.41,1.41,0,0,0-.182.1l-25.785,16.31c-4.938,3.12-11.187,2.9-12.27,2.25a2.117,2.117,0,0,0-.59-0.24l-0.7-.19c-11.838-3.05-26.577-6.86-36.786-5.55a2.248,2.248,0,0,0,.57,4.46c9.358-1.21,24.234,2.64,35.1,5.44l0.451,0.12a11.717,11.717,0,0,0,4.857.85,22.809,22.809,0,0,0,11.77-3.34l25.709-16.26a5.081,5.081,0,0,0,2.673-4.49A5.312,5.312,0,0,0,460.083,1537.16Z" transform="translate(-376.281 -1442)"/>
</svg>
