<svg xmlns="http://www.w3.org/2000/svg" width="40.03" height="40" viewBox="0 0 40.03 40">
	<defs>
		<style>
			.cls-1 {
			fill: #fff;
			fill-rule: evenodd;
			}
		</style>
	</defs>
	<path class="cls-1"
		  d="M1110.3,91l13.56,13.539a3.752,3.752,0,1,1-5.31,5.3L1104.99,96.3l-13.56,13.539a3.752,3.752,0,1,1-5.31-5.3L1099.68,91l-13.56-13.539a3.752,3.752,0,1,1,5.31-5.3l13.56,13.54,13.56-13.54a3.752,3.752,0,1,1,5.31,5.3Z"
		  transform="translate(-1084.97 -71)"/>
</svg>
