<svg xmlns="http://www.w3.org/2000/svg" width="50" height="50" viewBox="0 0 50 50">
  <defs>
    <style>
      .cls-1 {
        fill: #fff;
      }

      .cls-2 {
        fill: #b1b1b1;
        fill-rule: evenodd;
      }
    </style>
  </defs>
  <circle id="Ellipse_1_copy" data-name="Ellipse 1 copy" class="cls-1" cx="25" cy="25" r="25"/>
  <path id="Shape_3_copy" data-name="Shape 3 copy" class="cls-2" d="M649.992,176.99a2.141,2.141,0,0,0-1.509.618l-4.866,4.814a2.1,2.1,0,0,0,0,2.986,2.149,2.149,0,0,0,3.018,0l3.357-3.32,3.358,3.32a2.149,2.149,0,0,0,3.018,0,2.1,2.1,0,0,0,0-2.986l-4.866-4.814A2.141,2.141,0,0,0,649.992,176.99Z" transform="translate(-625 -156)"/>
</svg>
