<svg xmlns="http://www.w3.org/2000/svg" width="89.719" height="89.9" viewBox="0 0 89.719 89.9">
  <defs>
    <style>
      .cls-1 {
        fill: #fff;
        fill-rule: evenodd;
      }
    </style>
  </defs>
  <path class="cls-1" d="M115.9,15306.1a44.95,44.95,0,1,0,44.857,44.9A44.877,44.877,0,0,0,115.9,15306.1Zm21.432,53.9c4.377,4.1,5.285,6.1,5.432,6.3,1.813,3-2.008,3.3-2.008,3.3h-7.307a4.837,4.837,0,0,1-3.636-1c-2.731-1.9-5.309-6.8-7.316-6.2-2.036.7-1.973,5.1-1.973,5.1a1.692,1.692,0,0,1-.45,1.1,1.893,1.893,0,0,1-1.492.3h-3.27s-7.213.7-13.568-5.9c-6.93-7.2-13.049-21.5-13.049-21.5a1.467,1.467,0,0,1,.032-1.3,2.6,2.6,0,0,1,1.6-.5h7.817a6.458,6.458,0,0,1,1.263.5,3.169,3.169,0,0,1,.678,1,52.959,52.959,0,0,0,2.937,6.1c3.265,5.7,4.786,6.9,5.9,6.3,1.615-.9,1.13-8,1.13-8s0.03-2.6-.812-3.7a3.311,3.311,0,0,0-2.428-1.2c-0.441-.1.282-1.1,1.218-1.6,1.405-.7,3.889-0.7,6.826-0.7a18.966,18.966,0,0,1,3.839.4c2.694,0.7,1.779,3.2,1.779,9.2,0,2-.347,4.7,1.047,5.6,0.6,0.4,2.062,0,5.725-6.2a43.764,43.764,0,0,0,3.039-6.5,1.913,1.913,0,0,1,.726-0.9,1.671,1.671,0,0,1,1.062-.2h8.243s2.454-.2,2.854.9c0.42,1.2-.924,3.9-4.284,8.4C133.363,15356.5,132.749,15355.8,137.33,15360Z" transform="translate(-71.031 -15306.1)"/>
</svg>
