<svg xmlns="http://www.w3.org/2000/svg" width="89.719" height="89.9" viewBox="0 0 89.719 89.9">
  <defs>
    <style>
      .cls-1 {
        fill: #fff;
        fill-rule: evenodd;
      }
    </style>
  </defs>
  <path class="cls-1" d="M258.1,15396a44.95,44.95,0,1,1,44.857-45A44.9,44.9,0,0,1,258.1,15396Zm26.237-55.6a19.624,19.624,0,0,0-1.239-6.5,13.7,13.7,0,0,0-7.9-7.9,20.247,20.247,0,0,0-6.455-1.3c-2.76-.1-3.677-0.1-10.639-0.1s-7.88,0-10.643.1A20.292,20.292,0,0,0,241,15326a13.711,13.711,0,0,0-7.9,7.9,19.623,19.623,0,0,0-1.24,6.5c-0.126,2.8-.157,3.7-0.157,10.6,0,7,.031,7.9.157,10.7a19.623,19.623,0,0,0,1.24,6.5,13.711,13.711,0,0,0,7.9,7.9,20.389,20.389,0,0,0,6.454,1.2c2.763,0.2,3.68.2,10.643,0.2s7.879,0,10.639-.2a20.346,20.346,0,0,0,6.455-1.2,13.023,13.023,0,0,0,4.786-3.1,13.9,13.9,0,0,0,3.118-4.8,19.624,19.624,0,0,0,1.239-6.5c0.123-2.7.155-3.6,0.155-10.7C284.493,15344,284.461,15343.1,284.338,15340.4Zm-6.792,25.6a8.273,8.273,0,0,1-1.776,2.8,7.2,7.2,0,0,1-2.731,1.7,11.6,11.6,0,0,1-4.572.9c-2.716.1-3.53,0.1-10.366,0.1s-7.654,0-10.37-.1a11.586,11.586,0,0,1-4.568-.9,7.151,7.151,0,0,1-2.731-1.7,8.3,8.3,0,0,1-1.776-2.8,12.934,12.934,0,0,1-.843-4.6c-0.123-2.7-.149-3.5-0.149-10.4,0-6.8.026-7.7,0.149-10.4a12.757,12.757,0,0,1,.843-4.5,7.433,7.433,0,0,1,1.776-2.8,8.864,8.864,0,0,1,2.731-1.8,14.6,14.6,0,0,1,4.568-.8c2.719-.1,3.534-0.2,10.37-0.2s7.65,0.1,10.366.2a14.617,14.617,0,0,1,4.572.8,8.936,8.936,0,0,1,2.731,1.8,8.3,8.3,0,0,1,1.776,2.8,12.859,12.859,0,0,1,.842,4.5c0.124,2.7.149,3.6,0.149,10.4,0,6.9-.025,7.7-0.149,10.4A13.036,13.036,0,0,1,277.546,15366Zm-19.445-28.9a13.9,13.9,0,1,0,13.873,13.9A13.944,13.944,0,0,0,258.1,15337.1Zm13.737-3.6a3.75,3.75,0,1,0,3.746,3.8A3.776,3.776,0,0,0,271.838,15333.5ZM258.1,15359a7.95,7.95,0,1,1,7.919-8A7.977,7.977,0,0,1,258.1,15359Z" transform="translate(-213.25 -15306.1)"/>
</svg>
